GFORTRAN module created from mod_variables_01.f90 on Sat Oct 26 20:02:35 2013
If you edit this, you'll get what you deserve.

(() () () () () () () () () () () () () () () () () () () () ())

()

()

()

()

(2 '__convert_i4_r8' '(intrinsic)' 1 ((PROCEDURE UNKNOWN-INTENT
UNKNOWN-PROC UNKNOWN INTRINSIC FUNCTION ELEMENTAL PURE) (REAL 8 ()) 0 0
() () 0 () ())
3 '__convert_r4_r8' '(intrinsic)' 1 ((PROCEDURE UNKNOWN-INTENT
UNKNOWN-PROC UNKNOWN INTRINSIC FUNCTION ELEMENTAL PURE) (REAL 8 ()) 0 0
() () 0 () ())
4 '__convert_r4_i4' '(intrinsic)' 1 ((PROCEDURE UNKNOWN-INTENT
UNKNOWN-PROC UNKNOWN INTRINSIC FUNCTION ELEMENTAL PURE) (INTEGER 4 ()) 0
0 () () 0 () ())
5 'alpha' 'mod_variables_01' 1 ((PARAMETER UNKNOWN-INTENT UNKNOWN-PROC
UNKNOWN) (REAL 8 ()) 0 0 () (CONSTANT (REAL 8 ()) 0 '0.41893780000000@-2')
() 0 () ())
6 'm' 'mod_variables_01' 1 ((PARAMETER UNKNOWN-INTENT UNKNOWN-PROC
UNKNOWN) (INTEGER 4 ()) 0 0 () (CONSTANT (INTEGER 4 ()) 0 '2') () 0 () ())
7 'mod_variables_01' 'mod_variables_01' 1 ((MODULE UNKNOWN-INTENT
UNKNOWN-PROC UNKNOWN) (UNKNOWN 0 ()) 0 0 () () 0 () ())
8 'dy' 'mod_variables_01' 1 ((PARAMETER UNKNOWN-INTENT UNKNOWN-PROC
UNKNOWN) (REAL 8 ()) 0 0 () (CONSTANT (REAL 8 ()) 0 '0.10000000000000@1')
() 0 () ())
9 'n' 'mod_variables_01' 1 ((PARAMETER UNKNOWN-INTENT UNKNOWN-PROC
UNKNOWN) (INTEGER 4 ()) 0 0 () (CONSTANT (INTEGER 4 ()) 0 '2') () 0 () ())
10 'dx' 'mod_variables_01' 1 ((PARAMETER UNKNOWN-INTENT UNKNOWN-PROC
UNKNOWN) (REAL 8 ()) 0 0 () (CONSTANT (REAL 8 ()) 0 '0.10000000000000@1')
() 0 () ())
11 'a' 'mod_variables_01' 1 ((PARAMETER UNKNOWN-INTENT UNKNOWN-PROC
UNKNOWN) (INTEGER 4 ()) 0 0 () (CONSTANT (INTEGER 4 ()) 0 '1000000') ()
0 () ())
)

('a' 0 11 '__convert_r4_i4' 0 4 '__convert_i4_r8' 0 2 '__convert_r4_r8'
0 3 'dx' 0 10 'alpha' 0 5 'n' 0 9 'dy' 0 8 'mod_variables_01' 0 7 'm' 0
6)
