GFORTRAN module version '10' created from variables.f90
MD5:abf4bbf16b29b186ff8287dc24ae372d -- If you edit this, you'll get what you deserve.

(() () () () () () () () () () () () () () () () () () () () () () () ()
() () ())

()

()

()

()

()

(2 'pi' 'variables' '' 1 ((PARAMETER UNKNOWN-INTENT UNKNOWN-PROC UNKNOWN
IMPLICIT-SAVE 0 0) (REAL 4 0 0 0 REAL ()) 0 0 () (CONSTANT (REAL 4 0 0 0
REAL ()) 0 '0.3243f6c@1') () 0 () () () 0 0)
3 'variables' 'variables' '' 1 ((MODULE UNKNOWN-INTENT UNKNOWN-PROC
UNKNOWN UNKNOWN 0 0) (UNKNOWN 0 0 0 0 UNKNOWN ()) 0 0 () () 0 () () () 0
0)
)

('pi' 0 2 'variables' 0 3)
